{
  "project_info": {
    "project_number": "880626634232",
    "firebase_url": "https://seculoapp.firebaseio.com",
    "project_id": "seculoapp",
    "storage_bucket": "seculoapp.appspot.com"
  },
  "client": [
    {
      "client_info": {
        "mobilesdk_app_id": "1:880626634232:android:e97ba4577853a9e4",
        "android_client_info": {
          "package_name": "com.tap4mobile.seculosapp"
        }
      },
      "oauth_client": [
        {
          "client_id": "880626634232-ahrov76ihhkj9gavpom5fr1hl0ssasna.apps.googleusercontent.com",
          "client_type": 3
        }
      ],
      "api_key": [
        {
          "current_key": "AIzaSyCQ9ECPepVgp0LXlxRssFJ8YMCWkxoxbbE"
        }
      ],
      "services": {
        "analytics_service": {
          "status": 1
        },
        "appinvite_service": {
          "status": 1,
          "other_platform_oauth_client": []
        },
        "ads_service": {
          "status": 1
        }
      }
    },
    {
      "client_info": {
        "mobilesdk_app_id": "1:880626634232:android:115a6d443538f499",
        "android_client_info": {
          "package_name": "com.seculomanaus.seculosapp"
        }
      },
      "oauth_client": [
        {
          "client_id": "880626634232-ahrov76ihhkj9gavpom5fr1hl0ssasna.apps.googleusercontent.com",
          "client_type": 3
        }
      ],
      "api_key": [
        {
          "current_key": "AIzaSyCQ9ECPepVgp0LXlxRssFJ8YMCWkxoxbbE"
        }
      ],
      "services": {
        "analytics_service": {
          "status": 1
        },
        "appinvite_service": {
          "status": 1,
          "other_platform_oauth_client": []
        },
        "ads_service": {
          "status": 2
        }
      }
    }
  ],
  "configuration_version": "1"
}